<?xml version="1.0" encoding="UTF-8" standalone="no"?>
<!-- Created with Inkscape (http://www.inkscape.org/) -->

<svg
   xmlns:dc="http://purl.org/dc/elements/1.1/"
   xmlns:cc="http://creativecommons.org/ns#"
   xmlns:rdf="http://www.w3.org/1999/02/22-rdf-syntax-ns#"
   xmlns:svg="http://www.w3.org/2000/svg"
   xmlns="http://www.w3.org/2000/svg"
   xmlns:xlink="http://www.w3.org/1999/xlink"
   xmlns:sodipodi="http://sodipodi.sourceforge.net/DTD/sodipodi-0.dtd"
   xmlns:inkscape="http://www.inkscape.org/namespaces/inkscape"
   width="65.757782mm"
   height="62.371117mm"
   viewBox="0 0 65.757782 62.371117"
   version="1.1"
   id="svg550"
   inkscape:version="0.92.5 (2060ec1f9f, 2020-04-08)"
   sodipodi:docname="drawing.svg">
  <defs
     id="defs544" />
  <sodipodi:namedview
     id="base"
     pagecolor="#ffffff"
     bordercolor="#666666"
     borderopacity="1.0"
     inkscape:pageopacity="0.0"
     inkscape:pageshadow="2"
     inkscape:zoom="0.35"
     inkscape:cx="-488.59046"
     inkscape:cy="189.29525"
     inkscape:document-units="mm"
     inkscape:current-layer="layer1"
     showgrid="false"
     inkscape:window-width="1294"
     inkscape:window-height="704"
     inkscape:window-x="72"
     inkscape:window-y="27"
     inkscape:window-maximized="1" />
  <metadata
     id="metadata547">
    <rdf:RDF>
      <cc:Work
         rdf:about="">
        <dc:format>image/svg+xml</dc:format>
        <dc:type
           rdf:resource="http://purl.org/dc/dcmitype/StillImage" />
        <dc:title></dc:title>
      </cc:Work>
    </rdf:RDF>
  </metadata>
  <g
     inkscape:label="Layer 1"
     inkscape:groupmode="layer"
     id="layer1"
     transform="translate(-94.87706,-136.54659)">
    <image
       width="65.757782"
       height="62.371117"
       preserveAspectRatio="none"
       xlink:href="data:image/png;base64,iVBORw0KGgoAAAANSUhEUgAAAdIAAAG6CAYAAAC8x8cBAAAjeXpUWHRSYXcgcHJvZmlsZSB0eXBl IGV4aWYAAHjarZxpchy5EqT/4xRzBOzLcbCazQ3m+PM5sooiKbVeq7tFE1msygUZiPBwDwRo9v/7 v8f8H/616quJqdTccrb8iy0233lR7fOv3+/Oxvv9/lv+9cp9fd+M/nqpAwI/w/NBzc9P937/dcL7 p9N56dOF6nx9ML5+0OLz09dvF3rdKGhEXkN8Xai9LhT884F7XaA/j2Vzq+XzI4z9esTXda8Z+G/0 7bxtUp4f33+PBeutxH2C9zu4YPnuQ30GEPTfmdD5wD/fOdCGwmsbGt9TeD8qBvmVnT7+NUZ0NNT4 y4O+zMrHq2+zdfzLRt9nK76nN3wzcv74+cv3jUu/npVr+k93jvXDTb6875JPz4i+Wf8a/6x67jPz FD1mTJ1fD/V+xPuK4wa30K2rYWiZ2cn4UOWnvhpfFa+euMKy0w6+pmvOM13HRbdcd8ft+3O6yRCj 38YXXng/mUG9WUPxzU/mzYWoL3d8YQ5XqMztZNoD7/qPsbh722anuXer3Hk5DvWOi8kd/vjL/OkJ 5ygUnLu2fGaYcXkvYzMMzZy+cxgz4s7LqOka+P31/Z/mNTCDSVZWiDQMO55LjOR+IEG4Ex04MPHz iUFX1usCmIhbJwbjAjPArLmQXHa2eF+cw5CVCeoM3YfoBzPgUvKLQfoYQmZuqtetOaW4e6hPnrcN 7wNmzEQKmTirijImK8aE/5RY8aFO0MWUUk4l1dRSzyHHnHLOJQsUewklmpJKLqXU0kqvocaaaq6l 1tpqb74FQDO13EqrrbXeuWfnyp2zOwf0PvwII45kRh5l1NFGn7jPjDPNPMuss82+/AoL/Fh5lVVX W327jSvtuNPOu+y62+4HVzvBnHjSyaecetrpH7P2mtafvv5g1txr1vydKR1YPmaNd0t5X8IJTpLm jAnzJjpmvGgKhGyaM1tdjF4zpzmzzRMVyTPIpDlbTjPGDMbtfDruPXfGPzOqmftX82ZK/DJv/p/O nNHU/eHM/Txvv5q1pTQ074w9USij2kD08fmu3deuZNfXPLxX8faZwjnR+JUHsVqtApuPgKFygJK2 fdPvWHakqlfTulY4snGlGbofJZzt7ATruD94lPoswtU57uGRuDo3Z5fa+aCmvnLQWzmBvz5zT7uf IX0MCMyOryEJrDUoHuHroN5Deg2I4345JKPk+2VQryH9PKBnSNZ+HdTbTkaG+i/sZGSo/8JORp/+ F3YyMtR/YSfzdqh/ayfzdqh/bqc82rHDEJuZiGqb0Bmk4+QF+9yz5TRCA/ljIXJJ/inHJdJQiL+5 bCSy5hin5dXigYyuncKu4czce/Q5pAa63MQBH00tugmY9BQHKAHz2LPb5mpKXCHUVQi+EyEJxqa1 1mxlhL1hAb2CVyEx5LBsSjPFuIAs3turjFVci/E+n5+VkZ7SnctheYBtiXPxxgQbIm/5U8I+KSrO N+Rv9NVHaz7BJUCycHiNfSxA0Pbpu+QOpESTd4RrDGZxpMQZA5sBJQHsi2vUa/AEF9nDO57h7LlA 15Lc6pAeoSQ3wPTQ45K4Ui1nYKcNUHtOKW7s1Ho8nvEE3ZEP9SwCo7lnXRPi3FN+DjjjGO7DUWAg Wb2Mk3tOsTbmJJOvIDk5gJ7tpBDTXhvcK3mS8EtLWf7ReQIHSm5TuEY8mel0mXwy+uBXpn8c4HW0 be91spxvyWwoAUzo78vODL7es+b94h/+DA1639PFIx8x0w2LDnif1Woqk6Gf7M4koR1mKfQbyjw8 Pj6nHzvM3jKOUdFUQnnT5C+ZYfYNBfW86/HRwJQ6QogUNeQsc3HbXH0iMVloKIEjN849Pl6Ajcbj Bsyhn9yvNzyPpAhTSmGdRRZKc0zcxadWz4Yq91HgMdCmjrPKS04TsIU4uXPqZVgebCNfOCpw1BqD nNra3IVAhyYczuIgRW05bcWAE/H8GAI/KObDET78gMDkkMIhi+icxOIasRCf7cNRhhylic/FtlPi 42M2mdOW/slX2mhruJjH6wqxuP0+IIXpcLDEEXXwz+nYs3gq03Y8L0e5ADKAUb83hgq4IjTTKzYZ nkKIaEuYlrBifFnxt6ceFLlo+j6EziFOsp5keTeFOViFsAeMU57b9XMBuc/W4ubShzjCZILT/sri 5jAl9/WA3PxI7X/803x+A1uC0EB1C27dbLHHusCbs4NU7VQU3S4OzN4AhOvG2PWcYQL+XJm6BBk6 FV9t+ErlSpiRIcJs7M79AHFzwqPsWPjEyBFWKt2cCJFuT0ymz72JZBAUvzt24Vea8JsIho+AvmYc a8mp6qheLnFeEzob9uKaPVcwe6wz4iYGoIR+C34Q0AdhBdgBQB7WVJjEdCEad2ICa0VrP2i4wFJI 7DBMTh7EV5qRQJzNkVa2x2V2L6t3V8TlzuCkgteHCCUE2S1oYxeRBYEsdRSC1u8eJ64jCCSoOWmH qPTYkPjNV4DKkq6As+A8+MPsW2L0ooEo6gYvdxrbwDdjkZadSAFUXz8KgnzdbRO90L+Em2+ltptb wEGhCU4NiYZhOvHS7sw8AZhgPOuOJOaXK3z2r6kpxzAE8vRlO2JjZWDS4+hYf2Rc3XBPPX7oiGHm nVSrcAa/JlQbf7jeVF0APM4Cgx+uUtLypNTra4x19XVpzRI6AOV4Ib4Y23Ah7CZKkSt5fT18xZd0 Lzv2QwGgyZdUPAeZJQLxHPMcwee82ABfQlSX5XXWcoEnuvFm4+730rjRHdFMSifStO+j3sc8R/B5 mQv/cbhzO/GhNO/n/fq0YrWuxP9pjxPIrPHTAH9xc/O+u/vfD/B9gF9ub366/+cB/vQAvxrec3vz OwP+if3M7wz4J/YzGuF2bhBuPhapIpG0snJbiaTE3a/fK7ImYNegbgk4f2fqV5oW1N48zTP8lKnl szdX69OfcjVP7Bw60MYZ+0zDMGhydLSQtOxRcHHNDDaFT9iEVfB0BGPnIUjCmCblEdfiLgH0jRgv mrPChjORgLZTCiOfEW7SgJieBA7Sgn9A0HIJIKtrbJfzGNu2EasnNZXZIUOGp7WOsMuQoRr9qQlm RuBPmBnilvzvViUlTtUSE4h5yGzLwe8voLq0E1lpDnN5A2S4rTY9THQkToViq0aG7L0Qs8HTKOle wF84HQMgPx7PoV6VNVJMMjBxMWXVZL39BSULV0C4UeCoA/9BwYy9mAdJAe4K8ZEYzwb2T3Ih98LT G9hMtlp7zCp90cbeEg+C5UfSzLd/76uqkh/WbdWvrJkLXo2okbh5hNYDV3X0X11rvh2RK0XVnRA6 qiNWk7M4BIoMsvxonxC+BMnrTqrx3Xs9d+I+SHyef9jnUgbv/08uZTSs/+JS5nnCf38p8zbWv72U eRvr317KPE+Yo1jl9PhSaKR8DtnoQnll/oEZvyP35m+w+yfcTxwL4YzCRK6uG/zvaIeAFIP+gWmI +VqUZlHRR5wjwiBSJyLQ1p1UnSFXzikFl+KFLVzUwt552MUtiX5sAyvdGRC2EG+evpPfV4J+OWhR CnzK40HfmjhE0D29B5+qioMClQE6VGcYIwkaYoWqB0haTEusy7vAb1KO7jFwWY6xcrrdgFQcm9jn sjyDUn/fpo8As3J1EjY2B6Do8CuIUWBo0h4bE2cEu2u2AJZpcONoD3PIPyiKjciUGoxHdsOw4eeN 4ZNZwB4oji8OR/BFJQn4bJk7u0yGcH0tt0ONEA2HNkIptYRE8UZlbrj/Zuw2FUBM52G9xtFo3w7m LvFZwUyGo9fVID8cXPrgip4hnHFXISC/LWRAjSTmyWFSYzwq1+TZkQOkACAaGE42ogKQcNMisGOK ymcy3tZLE5OqDSCbB2LdSOAazw8ZHOB1DjBUJ/lSyDWQQ3glinB0Tg0kPwfPrUTF9MfA6l6INVNT kQUGn5B18FryxkEN6rBfHSXcQ25VEvku2/hbnHH1lcb/8PQfZ5t/d/qPs82+CRuhOZVlODREcmcm +TtCV8YmdzmnogxKJKkonHB6yPcjhbJ11+rGvl6oMmTXwq9dDpDs+3I2K0ZcYdzNodtS4gJisX5N nEKSdejIObtpdqpCzafPoe459PTspUUvfsDJed5GTKBTcQbQqDscxfYaEESjwjvMlMrGT4gi2JQv bRMRE5UodOEq4VTppwsbJGucrJNdGVqFXKNB+LxJGEFGjwuTgAJpSK07Cz0AKlJ5R2JoBGsglHC7 GeApBCu0APfinuEuhPIsvDDwDPJ6T1wANbTQRJnH4gJ5gjUkZKxE+KIE0Wbg57rCxaJ59ML5LDAC iyDsyCU0n10SkWBDK64juSrKIuL8Dq84JfJ8wasyhCqv86CgbXvBET5SIaMRVZPRg6gRkNIysl1y cphtq+pWksqOoSHC0mnWIUGwCXjU86mRTI8bZbA3mQV5K6gr1du9bA4MDs7b/gcSVdW+MGVuSCOE FeNOhRg9c0BPGXZM20CUyp61fjl77Njl38QkcydYV8qBGqu+FdGBfPWRkweBJGkJcjNVexGCQlZg jzuA1wR2YG4Xp3OLbVHhAyzqtfiGENx4+4QA44qic4qLEAyi6ilPtQ79g6oh0CPRBaM7JAHcIj2F IJ9GGlG3tbWLT5LPTrZBwJbSMlrEUMEV83J1OBdRx0RwxxxVMZUs9cguHD1X5rNPUpIn9aYRcvhx kOkedUrGsq5nFVx8Xi3U3GzdL80vEfwrTljl9OfJv22YdCGD7EfWB7C7ci4sDXQcZCZmPQZk+OkJ GM+q2gzPEx0h+EHqL7JYsEycqV4E+aS+VfFw5PZ58xiBB7bsuG+dRjLG5xqvVCUE8pVAypz7USXL aBUGq/pyRSgyB25NCj2PiLk8016HfImwDngEUAWT7HGx7DnhyqzznPEc/6GKvKoul5jCnm9tjQm9 ZFlUxn+7oHlf8V9dsJFFIPw8lIprGRuBGw+VEv9pqB74RSGtIrRsSyrn5Eoux8y1l2IPUgFR4fP2 hnwfDkPA3eLMD+yGT5XU2jdfdvjBY+glkEYAaEEXKAnojq6VXY9nnwgYpget06/Q2pNhieqql6oF 7hf+ZphYJs2TinMzHamTa0JgCNhrRq245dp0e4bhmUlSdHbK6UeLEZyeL3y7FbhExq9iqAl+lJzO FnwLveEGOaE+dwNzyeYT/IldFb6R8HX0reIn84ggL6DRL3ASvwWejZJqDrbG+FoZfeYOUYKRQoVu vbWEcbEaCgWZ0cw+eebCNRgBLtkdzIbxVGHl9eAAs+VWSEwyDb/wcJCIaUEiMG8ww4p2d5nb1fEk BI6xIRtMAoeySSs+AVxJCwQd1VahLVmJoQnwLw8CNEjeHAbaEn+2ZZJCRoj2ucxl14pp/4G1Fy3r Qd2p66V1iFkWVJfJBKUL1YBuiosAhSeRDGfvBokowj28t/sJ0Po6HxwAM8kBeAP2xwQjnXWGUpTH UcDblMaDmTOYFWFgwtuTn2aeIDaCwTeUuJBs9JZcozWt58aUJ3ytXahquOcYl/lZ2EjmOS+TSOEX aCo8V/049+jJIKB+eoig80JjKE29aGxILB63uEiaOr7Rhu+qppMRa3ivztwZ7f5WujjQqs7qZm8/ 1nGgx5/L70k1fE/Q45DlXXyfR8VNW8YtvuOxGxeEL6hMCpcevBoHmaXKetO6ARm/ElfVe5LXU8sg aakIU8U3gjJarbfwPm/h3cpSQEbKnum31U9ProGc1KmARnzBYsNdVsPWNud0QQGoYn4fqZTs672P n+b7Gz/9jAQJeuJkd5FhMQXNAk2+f0EG04WWwhk4SV6MbIzeyPejCBIUVFW1jR76DwzBuyOPDCqU qlWpRuoygjyrtYQ6VaFwW/wLaXgiKBAPFCoufF2V95kcvAEE4mzZkyDZnIy/jZUMbl5RQQEcIZV/ nH1CJA0uFAjqD/5GEDOlJNHVX6uRYON1Jok/nNkorhAXF0gY5ABI4GDOLrLt0bMip+a+rK0LDoLb Q0RJQJJvJPUB2ZkGIAhKqIQyrJfwDGOiH2/GSjg5Zw4yZUEdai3vCAeUPF15UKQ8KALUguGRmYEf YCQoldi4kqNFyGmVx0HEoG3zwIaK+qrKpWwPDhB74ACA3xE1HiwQwS6fYEBiQtGMpZOPAd6bHPCN U04f4NgLmtWLWiZwNyhFriZCCAg+5JeFZRLPhShtqGKyFdMzJiS3lwqYNB4D3DygCCH0qMDLvBoo skyCkeUPMIi/JHyieC++1z5A5H1iO7dZxmBZmP5drOkCHNGqXRK/upa1ohFfpMw7K/6HDGEWh4Xu aGWvvVHGPOt3wS3kvtZvIwiBHF+QnvEFGRzeExx4ZYG2WcE6dRfMAOcSNJjXOq/akcgY6IfSmJS7 jLL5HdqGAZQ01PeS8DPugSMVrdJC5WEL+hzGprnS6p2WwgVAS6se2zvhD/AGS+sYbYWbHjj/WQaO zzKwlDbqirgi1q7e6vhxA0FJzoo0aH1+r91hKPVGirTGdUIgxyVN69k4A7QsXYnWjdyIB9l3+Zy4 4D2y24LQrJWJ8QamM0gMpGUuQiYAxgmpU+oDyPhGgluaVM5d6iY1/Yq58lyKk4LtIJd2ZSBnAvFM 7yDBeZCZGZQ4Xtzf2yBO6iaGOo6ERnLaBNerW2KOp1uixEc0pyQXJ3FfnolaQ9wdc/LDYiGsBWvH papHuI0XrytpceXLtbiSFyXM5aODoxXzbuHYt4WDLA4Owda1YlijFPurqub3q0VFSusy3HQH2Nrl TdtUxNqruST0V3NJH+rj0FLQ01zyut77as+1RFafa1ldzTw9Ie+r3Wv9uBKEP2xyWVe5hW+8IpZ7 6jUtrZzjN2oSmxM2ouUzcprK4NuPhYtNVEVWGau5MrR8AAheo/NxRwha0oYbqqrfRbaHv2VT1WNQ GeNNGAsHSw56oO5c4h5zEyr4ObGwoJtwZYKjyR9hhBbyhDviFYxoxsrpfnLoxAcqsq7tIZJm+9KS LDMTSQ5+9HL5Z2mKH1AOFBHId7UJD9gIJ/Fly6oNSvcioZ3IjFvoPZKrIWqJAatsQUxZeFyEYGjC wd55ocSE5JHhcT7Fyrpit+SCKD7lQURyFoQGRG+ZX0k4Bf5HbO15i2+QDlgksn8YuAXAHCa8s0US Zc7A4whreTiHi83COeKlNVauoaUGNUsPMVmJftUgoRzHBK2G3Bwye0JTbFG4DAhGNUcrZ/DAO1ZS EBnkYZLjxSTTJyYJjCi1h7/OIPahsZj50tgS5FDQ2AHEnJ0SekiS33BTF5/q5QeNhYYqe0i6i4Yi 3UkJAymk2LZJBJApaFp/CedVRVRtJPRXAhEWioMpgYjTFxwNhwhX9SPFVYEMnyqQ5yX6k8SxFFU/ 5BasUPF+NSIWMUCCQZqOvAnSeNyKKS1Bikqzx+USHFOtI1Vr78TaXeIvUSO1cFEXVVgNrRMuWoNj iE/fx8iM9fT9Y5H/nV+Y5zSNkgMqKqOmmH5mU6imRba7iPXKHTPgZ+GVO2A5IpYVcooL3YU0crVZ 1lVi6L3If7Md7HS82Cmk0Ym9lvciP0hdybKkCbwPBqLojfiwAQwJ56g2DLUmnPjKHX5pTU89vB16 ld2nDEP2UY/SgOCS1IlF8oMzsKqolpZ8W21A86c9YC2yOuzWw8qRsczaUd8HWeUatd1usbvsz/CZ cgh7R+noXtiUnMj9Kncg6fw4EIhWbWWfnCCw4tqdwHyEcT0l4OGr45Br1tJsw4uCEGnBi6+JsAn0 LL87AybUi9T3V30BRo0BeXKZCH76GFUcRz6RKV1XLyrTfhEdhaSCSFGSYCTrMvikFrGs/FIMvGdA FwTnpLm/f+L388w/PfH7eebLiU4oBZlF1zjYQ0X9j6HqrcLcP7VhnF3aHVvkGhRVEPoJGZUmx/7Q +KWlHNBRPTJFJcibH2B3ta0J6iJ4hRKqD0TRdHgbhPyg1dDppCNyM2/nyMRA8mMn7LTIznMlK5pN 3OomFmWxlabg636lu5wx0QxM9AAtupkgGQQXgXOrAtJDt2B1y6cztYukMECIJrHT2grigL7Ckorj SWKEzte7CAW0ID/2HQc8AboyLHwQhawMCfxrWYSxADAoG6cijS0eJhlG1SIvb8zqjCKRlNRVzL6Z P5xSA+Q1a1V8kWQG+Fg8j+AXs7IhXEHlXLCxFESLDwScC+ZzVQESdasKf11UeK8lDZX2LiUfl5Ij jtFeUDcYar+knGTvPxVhI+o/i9ne7SFSg+tcLIY7Z8i31bhvCdbA4T5qsDN8lBOUCOEt0AwElxaV 1IeIi0liBM1G0ZJRIun67XCSbchNusrFMxWd/JVxVmtg/kyXJEQYhbYsdKBu1gZnEEypbbwC1jgE ZCWYqptwUx+5DzNeD4IHuuHuWhReGAcEJDJSrSCto/SHt6uOshm9Ux7pzls1DsDiiJ+D+Xja6XTB OBYkSAMn90Oqxk2g8m3pk6a2z8g1grskXwBuft1M9uolw08mCk2d/nrshK4dTxNFgTKp8R9iL1Xc u/ksDJCht2ByiFBYzWfWf9dFsA4E15eng1pqtUfhOw8SDdQCJQlBghGhDsIXdUCauq1eAO2rf4+Z 7fxAG5wEf9MKq7hHtaaI43UyIPpciy/ImhoSKmuNK6Jw91u+abcTNknDMeE3H2d7e8DylCYz8SvI bxTiwIm0CcLBuSYgX265VMk2be1n2s9H6wPhmYliKlFPehjaaAE6KJSIJ0hPtSp9Yy6CUdsd7JMC JBif3snN3MIFUMiF5GyQJk5FBUSz5eGvvFLuyEyZl/Imybc0mREVa7QKn5JW4vqVrMjRBn/XZsFt X33Rzv6iunPbdBKogmEm416yfM33RhADMQIR6tmmsbPJx6tWL9PtWUYlTNfaXUdUQffKmqP+zu+K 6LMgMlcRaUUN1lvuZcZ8DtfuoNYeIWNHVMUGHhqe0jjR/OkWcDSjRKqFb6YraKF2OvWe5JzFY26b ye0ZqNCs/XSNQPZfPJeQUFeAWrnBIwypDlB8497P/fRILwX0Hup7oBqmhvJq2DJl4XXqFQLEiFos lhvpao0FvQW38amqdLfIchspqrXiUfbcN1AIMJLc7Ygi6h8VCHoRUIGbwpU3XBedpPUpn29Nm1S2 WsLbK5O+SI+3KricfclBQ5jDFqCiUyuHHg6iboku9exIZCi5oZbegFuOTtCQg2e2OXiV3eoE4xoB 0dSfTRKH2FuQUGu5JOwIr1YXrphrUZd90nqwRR7tQYDn+wT2MnCUCINuzSUupKLshV0HSV0DaABn d9fGUeJlXbjuP+C6uB9wne95TWhtPuB63L58IszjxkQShGMONQm7hRBluAocPGHvpKVP/GnCg9WX ChaObV4gXQTSDgoqw5Ig3yCtvHYIyguwoJxVYkpAF4wc98OB9wPwxvnXyRfhTwhqvYfOwRsWBFF9 s/vuyNCMEXu/aoZTL5z5h81wSGRwHOocA3ySGxlYdg21I0N7Uf8sgTxv+6zKtImpVmlTxAW6DG1F OhPi+CVC8c2HI2GZzAeoEh/YF2N2rRtq2wHwAsnqaz/oq3LYEp4+KuSpzjDClovXYuYgCRCRNoPj +JzqNA+r1h4RdwvcgG17EFf7PBKR+rTUFn/zvdS1M+1eH19+QasybLr1vdtmqKq2GhQlPFSpwwpW PezVVjUFa/l0aaME0x8TYCxoDNqRsixU+9kPslVJelqYele6Dzj+wmhFwFavBe3Jd3szJKJjE8QJ aKP+7rtatu/aHnKQ6UQsCLtVDtLQsVOfURsAMBfG5WPlA6iR0Qab0pytFzRH0JJBD0Jl5UB8ArLX biH9rnXnv+rkM/BiaGkvaecuPFL3UFDdgbAnVxSHdkZhKeWpyTjCvrW1eV7a9rgjeejM14Jv9OOi OcgiLnB3Fan9WzsgnBMqA5uWEa0HbLUSc7FbqvBueDJ3x1NQSU5bi6TLrnnJCa+tVbi74PRZn/Wv 0pQCYGjb03N/7m4+9lrdPVYknAerrVjATT32PsHWk6z47sjj8X8cfg9WE/Pr2Lvjqn0/4Nvnn6/m 4WfAndcKm+gxohqAIjBW0ZILesS3GNWvxexpF3aWkFd6CUsZZqiSXzGLJRQcatNu7c4oXltmm1uw YXDpxAT+bxg/UKqavdbktpQPIkVdSFxc4LsjRgrzSPJDIzazVoYaJQQNXm1oFzdLeFp0GjSYo7QF CRbg/eibAISxAhkiNxB27fmJd6d45eun9eJvO2++QNivEcz8HsJ8Hxe3tAzpVIMbSQ47ouAJdj08 Twls2GMitkEKoM4H90VZQxWS/iTCYOQlFrQlaIeBES0KHJT0yNhvvxrx1XWx1/YGPMepEtkFVi/e wvCHGjM4K1T19w1thAPEDwj2QbacVgfQc5YE5tH53viPA+JlYwUu3LSQQw4bJ33ggXSN6OijTje4 C8H9ARdbDXF9jJqW2qmDKqHQ+LjJm9rtne6Ek/a9V/Hu9PpGCytvH7BCFVYZndEWNO2yBUEagFdV ilS15NliA0vRvhEcOJDjkJJDq7mty2UKyDummuRwKW9I5HgzlDsLMPECrfZrj7EWLebt/G/53Wty 2zggSja1FdWfJFUvLqwtVRLFt3VPnSbudxvCfvvT/MGGsN+6pfk7mdVJ9/GAigCrrRnKEPIOlWpu IaNFA0lCcIIJqJ2Yso1dvZwqWj29aqoiOq2YQAxUJ4ukYMlUrSWprQBFd1OL8UG9CL1qWfj6yljo XQzXIE77+gK8AuFwaTAjRD/1GKPd6fUxrgL/My9f6UyUu3kDwmHVrc5kq/KW/LPtC6uoWsxcx/nd F0JRiVXO8F7HksDBYyXvalkEk9bS0TCk1xrVne6uTUa6xcj4RnU06yJl8+SX+N01LG1UEDHq6rlQ vu1zZSAGwuelMHke0JdoPeodPYxujSnNrYY4dbFqJ3pw6+mdwZserbrIr0l/qKFpDbyfq3TQTd5B BXiUOqYaS8XftXkZxhIKQy5tMJU4TvC/2KHzP3Z6mb+9Jez7DrBn/9fH7i/zffuXuqP2enjAp/1f kBnQrnft6QE13EI/TtSspHyzWEsXcmtG9UXVrlJaW2AqJIDHIcFgCnsXGRd4Gu96gfbkBvFAwKLV l4d4g3CU4eXAAaUgrqDdrlL8d50lZzVCBFGrZ8NZupsU57OKKZs+/mHWdnfLK+xJvcl3MVQaoVft umLqo6Q/YAEUgx3n9uFdbiXP8BK4fIw49owg9KY1AzifarCIHDVH9HoXp2+Z47Y/dG0nvt0RpJC7 UWKnadurOcLcj7sWKEnayItEpHZbuMlTeT6TEWhBSGlQpDr1DFeWIqkOOVHlV/bZwHRgQnirBX59 Ljg4VFarmCrxJnhFbHdP8FCJWoJNzaFJRFLbr8irSdraSKqdvvT4i1kXfZ5f9iXip88OrHZxqyvE RFZ5lAP5VeebPjKnv4LvfoKf8+yortsUNhjJ3VkEgWFsj1RP8TIqou61oci/pKg+fz7lswLFf+1O GvPudcKXVS49QrV7oZWePUQfH1iFPSPiE3TjezPSM4SP+3y9jfvr0RXzdQh3O9O3e52fB/FjdB9j MH9ih9+ZwfyJHX5nBvMndvidGcyf2OF3ZjB/3w63R2+HcWsnKn2Oo3U3lPE8A3qsv7JBpM59RsnS 6DUgwlpWgwvhOfUXPLy6QVFJAalJPDZtDtVfoQG3QoDwlb6NwEaVaoENufSCP9EfP6ebBvG7qAGn VgHBw9LAjA3G7vXqmTBiPuixKSJc7GvLs3AnC3fa7blSlVAtSArnZ/8Ymj9qWUtFuLrIRs4kmFJ1 2lgB/bZvUAEuSod+DbK7F1zAg7Kr8VlmBS0Q0+1SQXcXvmAjWvny/YUsnw8VBGkZXn+DAAwRs2na WyeEdgdlv4cqWrCYhlByBkmy3xp+aE0rPM2VQ12NavvRDulX30QCzUH7qb/0APJU9SOh/MnOpRv7 oy4qe8Iw0tTaiZvxLn6hKvu4ddEGR4c1ZHf/3hIfOa1caGfAJi8bl7VXC0nxrnyqzp7Ds42u/VUv Wcnf6d3//EMB2m387Cf4+PlcBUOPHFQzVUXLodei0/7fiu88K1igclJfel+QamQWElV0RDVpdavv OFDvBwoU5ErPSTxarNDfeZK2pKlnZpLZuqoOcd0BwLQ3jKhjaVUCSC1aqCl46bsgq9U8Hu3/A8lx DF5vJxocAAAN/WlUWHRYTUw6Y29tLmFkb2JlLnhtcAAAAAAAPD94cGFja2V0IGJlZ2luPSLvu78i IGlkPSJXNU0wTXBDZWhpSHpyZVN6TlRjemtjOWQiPz4KPHg6eG1wbWV0YSB4bWxuczp4PSJhZG9i ZTpuczptZXRhLyIgeDp4bXB0az0iWE1QIENvcmUgNC40LjAtRXhpdjIiPgogPHJkZjpSREYgeG1s bnM6cmRmPSJodHRwOi8vd3d3LnczLm9yZy8xOTk5LzAyLzIyLXJkZi1zeW50YXgtbnMjIj4KICA8 cmRmOkRlc2NyaXB0aW9uIHJkZjphYm91dD0iIgogICAgeG1sbnM6eG1wTU09Imh0dHA6Ly9ucy5h ZG9iZS5jb20veGFwLzEuMC9tbS8iCiAgICB4bWxuczpzdEV2dD0iaHR0cDovL25zLmFkb2JlLmNv bS94YXAvMS4wL3NUeXBlL1Jlc291cmNlRXZlbnQjIgogICAgeG1sbnM6ZGM9Imh0dHA6Ly9wdXJs Lm9yZy9kYy9lbGVtZW50cy8xLjEvIgogICAgeG1sbnM6R0lNUD0iaHR0cDovL3d3dy5naW1wLm9y Zy94bXAvIgogICAgeG1sbnM6dGlmZj0iaHR0cDovL25zLmFkb2JlLmNvbS90aWZmLzEuMC8iCiAg ICB4bWxuczp4bXA9Imh0dHA6Ly9ucy5hZG9iZS5jb20veGFwLzEuMC8iCiAgIHhtcE1NOkRvY3Vt ZW50SUQ9ImdpbXA6ZG9jaWQ6Z2ltcDoyNWIyYWMzZC1lYTRkLTRjMGQtOGU4Mi1mY2MzZWI5ODI3 ZmQiCiAgIHhtcE1NOkluc3RhbmNlSUQ9InhtcC5paWQ6NGU3YmI3YzUtMTU1My00NGE4LTgyYjQt NzFhZDEwYTE3NWIxIgogICB4bXBNTTpPcmlnaW5hbERvY3VtZW50SUQ9InhtcC5kaWQ6ZTUwOGZi ZDUtOTY0OS00M2RiLTlkYzQtMWViNTFmNWU2NDliIgogICBkYzpGb3JtYXQ9ImltYWdlL3BuZyIK ICAgR0lNUDpBUEk9IjIuMCIKICAgR0lNUDpQbGF0Zm9ybT0iTGludXgiCiAgIEdJTVA6VGltZVN0 YW1wPSIxNjM5MjUzMzk3ODM1Nzc5IgogICBHSU1QOlZlcnNpb249IjIuMTAuMjgiCiAgIHRpZmY6 T3JpZW50YXRpb249IjEiCiAgIHhtcDpDcmVhdG9yVG9vbD0iR0lNUCAyLjEwIj4KICAgPHhtcE1N Okhpc3Rvcnk+CiAgICA8cmRmOkJhZz4KICAgICA8cmRmOmxpCiAgICAgIHN0RXZ0OmFjdGlvbj0i c2F2ZWQiCiAgICAgIHN0RXZ0OmNoYW5nZWQ9Ii8iCiAgICAgIHN0RXZ0Omluc3RhbmNlSUQ9Inht cC5paWQ6NTc5MGFmNmItNzgzYS00ODcyLWJhN2YtOGJlNDEyNjU4ODA1IgogICAgICBzdEV2dDpz b2Z0d2FyZUFnZW50PSJHaW1wIDIuMTAgKExpbnV4KSIKICAgICAgc3RFdnQ6d2hlbj0iMjAyMS0x Mi0xMlQwNjo1ODozMSsxMTowMCIvPgogICAgIDxyZGY6bGkKICAgICAgc3RFdnQ6YWN0aW9uPSJz YXZlZCIKICAgICAgc3RFdnQ6Y2hhbmdlZD0iLyIKICAgICAgc3RFdnQ6aW5zdGFuY2VJRD0ieG1w LmlpZDpmMTQzNjFkYy0xYzVjLTRlNjItODQ4NS1iOTdhNGI3NTdjNzUiCiAgICAgIHN0RXZ0OnNv ZnR3YXJlQWdlbnQ9IkdpbXAgMi4xMCAoTGludXgpIgogICAgICBzdEV2dDp3aGVuPSIyMDIxLTEy LTEyVDA3OjA5OjU3KzExOjAwIi8+CiAgICA8L3JkZjpCYWc+CiAgIDwveG1wTU06SGlzdG9yeT4K ICA8L3JkZjpEZXNjcmlwdGlvbj4KIDwvcmRmOlJERj4KPC94OnhtcG1ldGE+CiAgICAgICAgICAg ICAgICAgICAgICAgICAgICAgICAgICAgICAgICAgICAgICAgICAgICAgICAgICAgICAgICAgICAg ICAgICAgICAgICAgICAgICAgICAgICAgICAgICAgICAKICAgICAgICAgICAgICAgICAgICAgICAg ICAgICAgICAgICAgICAgICAgICAgICAgICAgICAgICAgICAgICAgICAgICAgICAgICAgICAgICAg ICAgICAgICAgICAgICAgICAgIAogICAgICAgICAgICAgICAgICAgICAgICAgICAgICAgICAgICAg ICAgICAgICAgICAgICAgICAgICAgICAgICAgICAgICAgICAgICAgICAgICAgICAgICAgICAgICAg ICAgICAgCiAgICAgICAgICAgICAgICAgICAgICAgICAgICAgICAgICAgICAgICAgICAgICAgICAg ICAgICAgICAgICAgICAgICAgICAgICAgICAgICAgICAgICAgICAgICAgICAgICAgICAKICAgICAg ICAgICAgICAgICAgICAgICAgICAgICAgICAgICAgICAgICAgICAgICAgICAgICAgICAgICAgICAg ICAgICAgICAgICAgICAgICAgICAgICAgICAgICAgICAgICAgIAogICAgICAgICAgICAgICAgICAg ICAgICAgICAgICAgICAgICAgICAgICAgICAgICAgICAgICAgICAgICAgICAgICAgICAgICAgICAg ICAgICAgICAgICAgICAgICAgICAgICAgCiAgICAgICAgICAgICAgICAgICAgICAgICAgICAgICAg ICAgICAgICAgICAgICAgICAgICAgICAgICAgICAgICAgICAgICAgICAgICAgICAgICAgICAgICAg ICAgICAgICAgICAKICAgICAgICAgICAgICAgICAgICAgICAgICAgICAgICAgICAgICAgICAgICAg ICAgICAgICAgICAgICAgICAgICAgICAgICAgICAgICAgICAgICAgICAgICAgICAgICAgICAgIAog ICAgICAgICAgICAgICAgICAgICAgICAgICAgICAgICAgICAgICAgICAgICAgICAgICAgICAgICAg ICAgICAgICAgICAgICAgICAgICAgICAgICAgICAgICAgICAgICAgICAgCiAgICAgICAgICAgICAg ICAgICAgICAgICAgICAgICAgICAgICAgICAgICAgICAgICAgICAgICAgICAgICAgICAgICAgICAg ICAgICAgICAgICAgICAgICAgICAgICAgICAgICAKICAgICAgICAgICAgICAgICAgICAgICAgICAg ICAgICAgICAgICAgICAgICAgICAgICAgICAgICAgICAgICAgICAgICAgICAgICAgICAgICAgICAg ICAgICAgICAgICAgICAgIAogICAgICAgICAgICAgICAgICAgICAgICAgICAgICAgICAgICAgICAg ICAgICAgICAgICAgICAgICAgICAgICAgICAgICAgICAgICAgICAgICAgICAgICAgICAgICAgICAg ICAgCiAgICAgICAgICAgICAgICAgICAgICAgICAgICAgICAgICAgICAgICAgICAgICAgICAgICAg ICAgICAgICAgICAgICAgICAgICAgICAgICAgICAgICAgICAgICAgICAgICAgICAKICAgICAgICAg ICAgICAgICAgICAgICAgICAgICAgICAgICAgICAgICAgICAgICAgICAgICAgICAgICAgICAgICAg ICAgICAgICAgICAgICAgICAgICAgICAgICAgICAgICAgIAogICAgICAgICAgICAgICAgICAgICAg ICAgICAgICAgICAgICAgICAgICAgICAgICAgICAgICAgICAgICAgICAgICAgICAgICAgICAgICAg ICAgICAgICAgICAgICAgICAgICAgCiAgICAgICAgICAgICAgICAgICAgICAgICAgICAgICAgICAg ICAgICAgICAgICAgICAgICAgICAgICAgICAgICAgICAgICAgICAgICAgICAgICAgICAgICAgICAg ICAgICAgICAKICAgICAgICAgICAgICAgICAgICAgICAgICAgICAgICAgICAgICAgICAgICAgICAg ICAgICAgICAgICAgICAgICAgICAgICAgICAgICAgICAgICAgICAgICAgICAgICAgICAgIAogICAg ICAgICAgICAgICAgICAgICAgICAgICAgICAgICAgICAgICAgICAgICAgICAgICAgICAgICAgICAg ICAgICAgICAgICAgICAgICAgICAgICAgICAgICAgICAgICAgICAgCiAgICAgICAgICAgICAgICAg ICAgICAgICAgICAgICAgICAgICAgICAgICAgICAgICAgICAgICAgICAgICAgICAgICAgICAgICAg ICAgICAgICAgICAgICAgICAgICAgICAgICAKICAgICAgICAgICAgICAgICAgICAgICAgICAgICAg ICAgICAgICAgICAgICAgICAgICAgICAgICAgICAgICAgICAgICAgICAgICAgICAgICAgICAgICAg ICAgICAgICAgICAgIAogICAgICAgICAgICAgICAgICAgICAgICAgICAKPD94cGFja2V0IGVuZD0i dyI/PvIRMqgAAAGDaUNDUElDQyBwcm9maWxlAAAokX2RPUjDQBzFX1ulRSsOZhBxyFCdLIiKOGoV ilAh1AqtOphc+gVNGpIUF0fBteDgx2LVwcVZVwdXQRD8AHFzc1J0kRL/lxRaxHhw3I939x5374Bg o8I0q2sc0HTbTCcTYja3KoZfEUUvBEQQkpllzElSCr7j6x4Bvt7FeZb/uT9Hn5q3GBAQiWeZYdrE G8TTm7bBeZ9YYCVZJT4nHjPpgsSPXFc8fuNcdDnIMwUzk54nFojFYgcrHcxKpkY8RRxTNZ3yg1mP Vc5bnLVKjbXuyV8Yzesry1ynOYwkFrEECSIU1FBGBTbitOqkWEjTfsLHP+T6JXIp5CqDkWMBVWiQ XT/4H/zu1ipMTnhJ0QTQ/eI4HyNAeBdo1h3n+9hxmidA6Bm40tv+agOY+SS93tZiR0D/NnBx3daU PeByBxh8MmRTdqUQzWChALyf0TflgIFboGfN6621j9MHIENdpW6Ag0NgtEjZ6z7vjnT29u+ZVn8/ 8/dydARJn+4AAAAGYktHRAAAAAAAAPlDu38AAAAJcEhZcwAADdcAAA3XAUIom3gAAAAHdElNRQfl DAsUCTkNRHJ8AAAgAElEQVR42u2db4wlV5nen6p7umfazYzd9uCxPTY2w+IZe5es7Q6whN0NHhJI QtjFgEcsUhJAQZFCyEqbCEUiSlbab6skH5JsFFZxgC+Q9cISRFabFSubbFgBIsaYZM0/M57xH+yx x26bmZ473ffeqnyouuM73XV7bt0+59Q5Vb+f1MK07H5unTp1nnqrnvueRNK/k3S3pGsFAACh8V1J vy/py5b+Xu9tb3tbcvbs2WT8i3379uVf+9rXMkkZGvU1jKQVSdeVP5eQJMkl/z/Pc+szBA000EAD jR01npS0ZMsYVldX07Nnz+rw4cPJiRMnckmybT5d0zCznEwXkwUNNNBAAw2vGunq6moq6RJjeOih h0YWzaeTGoY7RzTQQAON1mukq6urvQpjsFnBdVbDMCnRQAMNNNpvoocPH04kaYsxjNDYvYYRAAC0 ld74EeUklh+Ddl7DcHeHBhpooNFKjZ6Hd4lojI2UF/VooIEGGq3SIFjkUcNwV4cGGmig0SoNgkWe NQyTEg000ECDYBEa82sQNgIAaAcEixrSMNzdoYEGGmgQLEJjfg0nFSlhADTQQAMNbxqEfhrWMK4m C3eOaKCBBhoEi7qgYZiUaKCBBhoEi9AIwEgBAMAbhH4C0rBipNxBooEGGmh40yD0E5iGsTlhCAOg gQYaaBAs6pqGsTFZuHNEAw000HCqkYjQT7AahomPBhpooBG8BqGfgDUIGwEAhE3S6/W2/ZLQTzga tY2UO0g00EADDb8akhJCP+FqmHknDGEANNBAAw1/GoR+wtUwdScLd45ooIEGGt41CP0ErGGY+Gig gQYaYWuMRiNCPwFrEDYCAAgfm8ZAsMiyhvF85/W8pMck/UhSKklpeulnzLIsHz/GsHEngQYaaKBh UyPP86skHZV0S57nCx4qXpvHQbDIgYaZ5WRafHTxvKSvS/pjY8wls2U4HI7vumwMQiIpRQMNNNCw rZHn+S1Zlr0vz/MbJVk1UroixalhPFShk5yV9JP1tf7XeFIDADFy1bX77xiNRm+VvUetbLcWuYbx fDKTNE0TLkUAiJXBYJDJ3qNWuiK1QIOwEQBAPbKIPivBIg8axuNd0TYNAIAIiaUaJVjkScNsPZk+ OoAAAHQdgkXt0TC+q9Aykg4A0HkDdWiiBIs8ahifJlpqYKQAgImKYFFbNHyHjWx+sRgAAF6BYFFD GsZzNQoAQDUqgkVt0jCuJwwGCgCYKMGiNmsYV5MFEwUADJRgURc0TEQTBgAAE91iDIR+mtegsxEA QHwQ+glIw4qRUo0CAHhbEwn9BKZhbE4YDBQAMFGCRV3TMDYmCyYKABio0zUxEaGfYDVMgBMGAAAT rVi0Cf2EqUHYCAAgcJ/u9XrbfknoJxyN2kZKNQoA4H1NTAj9hKth5p0wGCgAdNU7yx+vW1AS+glX w9Q5kZgoAICSNE2TyXXQQ79yQj8Ba5iaJxMTBYBOs7i4mA6HQ58mqtFoROgnYA3CRgAANcjzPGlA 1qYxECyyrGGoRgEA5jZV59VoXojYEiJY5EDDzHIyMVAAgInyMMuc/F26IsWpYRqoQlMuQwCIvRh1 XIW6MFGCRY40jOeTmaRpmnANAkCsDAaDzKaR0hUpfg3CRgAA9cgi+qwEizxoGI93Rds0AAAiJJZq lGCRJw2z9WS67s4BAAAEi9qkYXxXoVmWEQEGAAzUrYkSLPKoYXyaaKmBkQIAJiqCRW3R8B02svnF YgAAeAWCRQ1pGM/VKAAA1agIFrVJw7ieMBgoAGCiBIvarGFcTRZMFAAwUIJFXdAwEU0YAABMdIsx EPppXoPORgAA8UHoJyANK0ZKNQoA4G1NJPQTmIaxOWEwUADARAkWTeG1koaSnpM0aFN4ydiYLJgo AGCgTtfERPEGcnqSDkl6d3kc3z548OAjFy5cGNx+++1qQ3jJBDhhAAAw0YpFO8JATk/S1ZLulfRR SQfSNP3q+vra7xw4kD3x6KPa3Lt3b/ThJcJGAACB+3Sv19v2y0gCOYdKE/1NSddJSvM8f3u/P9h/ 6tTLn1heTk+ePn26r8jDS7WNlGoUAMD7mphEGMg5IunXJX2kNNGFcqxWskxvOn9++Mlz507/J0kP SeoHfByX1TDzThgMFAC66p3lj9ctKCML5ByR9J6yGj2yZaxMnudX53n+DklnSx/6pqQLAR7HTBqm zonERAEAlKRpmkyugx76lccWLPp1Sccl3TXFP1JJ10h6b/nrTUn/p/zfEI6jloapeTIxUQDoNIuL i+lwOPRpohqNRrEFiz4i6cgM/nFA0vsk7ZP025JO1jTTIEJYhI0AAGqQ53nSgKxNY/AVLJqVqyT9 jdJM/7mkx2c002C6IhmqUQCAuU3VeTWaFyK2hHwHi2YZq56kFUlvlvSvJI0DSBcaOI65NMwsJxMD BQCYKA+zzMnfjbQr0k7BolmPw6h4Z/pOSeckLWh6ACm47k6mgSo05TIEgNiLUcdVqAsTbSpYVMcb LhdACrK7k/F8MpM0TROuQQCIlcFgkNk00ki7Is0TLJqVqgDSQFISancnwkYAAPXIIvqsoQWLZmVr AOmJ1dXVoYPjsDJWxuNd0TYNAIAIiaUaDTFYVKfivRhAMkafOnXq1MN33333RojdndKtJzPPc0wU AMAxjtdd18Gi4+U/Lzg8josBpCxL/97Zsy/90oMPPrjHgYnueqyM7yo0yzIiwACAgbpbd2MIFs06 Vqmka/I8f89gkOmll85snDlz5tsq9jUNZqyMTxMtNTBSAMBERbCoxlgdyLLsnizTsqRnVb8DktOx 8h02svnFYgAAmDC8SINFszJvByTnY2U8V6MAAFSjIlg0x1jN0wHJy1gZ1xMGAwUATLSzHYtsj1Wd Dkjexsq4GgBMFAAwUIJFDsZq3i3YnHVFMhFNGAAATHSLMbQwWDSrRp0t2Jxut0ZnIwCA+Gh7sGhW ZgkgOd9uzYqRUo0CAHhbE7sQLKpTQe8UQPKy3ZqxOQgYKABgogSLPI9VVQDpW5I2fG23ZmwMACYK ABio0zUxUTeDRTMbmi4NIA0PHjz48IULFwa33367XG+3ZgKcMAAAmGjFot3hYNGsHJD0vjRN96+v r/3OgQPZE48+qs29e/c63W6NsBEAQOA+3ev1tv2yg8GiWbkqz/O39/uD/adOvfyJ5eX05OnTp/ty uN1abSPtQjX6rYe/cduxY8f+sYpE2NyTf+sm5lmWSXbbJKKBRts0vry+1r+fanS7DMGimTV6klay TG86f374yXPnTo8DSH2bJjp5Psy8g9Dmx7nHjh27IOnv7OYuLUmSi2Pk8kU9Gmi0TOPHMXhn+eM1 kEOwqJaGyfP86jzP3yHpbOl1dTogVTE16GXqDkDbTXTiQrlC0nKgd1xooNFWjcUY1oc0TZPJz+5h rAgW1deYtwPSNBOdGvQyIQxCa9yXBRUNNFq/liwuLqbD4dDrWI1GI4JF82vU6YA01UR3CnoRNgIA qEGe50kDsrtNnLY1WDQr827BNlNXJEM1yh09GmhQjc5tqj7GarchrzYHi2bVmGcLtpm7IplZPiAG OvvJbMmLejTQiErDe3mYZbGMVReCRbNq1NmCrVYHKdPAXURKFYoGGmjEXowGPlZdCxbV8Z/LBZBq d5Ayngdh23fHMFE00EAjJgaDQWbTSB2ZaFeDRbNSFUAaSErm6SBF2AgAoB5Z4J+v68GiWdkaQHpi dXV1uPVfmuV7u2mTdxNUo2iggUaEhFyNHpX0QUkfVXjBok1Jw8Aq93EA6V8aY1afeOKJPePHuSdO nMhnbX5htn5AHy+G22KiBEDQQMO/RlvoULAok7Qu6U9VPB59g6TbA5lXRsVj8HdmWXb+7Nm1vQ8+ +OC3br755gt1OkgZ33cqWZblsU96qgU00OhcFRryWE0Gi+5VWMGikYoWfX8u6VMqErJ/S9KSpJsU wFcwy968r87z/L2bm1n60ktnNs+cOfPtOtWzaWCgcyY+GmiggYm2PliUlSb6XRWBnh+sr/XPL68s vV7Fa8UPqwj9mEDm7oEsy+7JMi1LelY1OiD5/iqKzd0jAAC6ziFJf19FsOhwYJ/tXFmJ/pak7+uV 72uelPQfJX1a0pOBfeZxAOnfSnqtZuz9nHKXStWABhpUo1GuJUckfUBhBotelvQVSf9B0g8kbayv 9TNJWl/rDySdLo30c5IeDWjubu2A9EZJey/3t4zrCRPphdXzdRxooIFGt0y0I8GiPy5N8pvra/3z W/+l9bX+UJKWV5bunPj17YEcR50OSPaNtC13p3v27Ek3NzepFtBAgyo0tLEKuWPRZLDo06WJnt3p 766v9R8uzTRJkuQKSTeOfanhuVtrCzbDxVV9OCx2aKDRiAYtRHc20aiCRTNKfG9xcfHCcDjs5Xn+ IUnX5HluAjkfM23BRmcjAAiGNE0ZhOmE3LFoHCz6bRXBoo1Z/8P1tf5Ikq65fuWWzc1N5Xl+XEXQ JxQuuwWblVnLFklUJmigYUuGarSSo4owWFSHF55ZO2mM+Wye559XRQCpwfNxuQBSz9j8gC16V5K7 npSETNBAY+fFrg0mammsrpX0dhVNDEIMFv0P7RAsqsPm5uYPJX2hvKHqjY83gPMxGUA6W/7/b0oa rK6upsbWpG9T4GBjYyP0LZLQQKOtGtEuJA7H6noVj3UXAw0WfUbSN9bX+ud2qz1+zLu8srSq4onp cc3QAcnT+RgHkO4p5+ng4MGDj1y4cGGQhnpxNcww4oUIDTSi1XC1YXbEJioVjxEXAw4W/YUNE91i qA9J+i+S/pukM3XXZMdjda2ke9M0/fj6+trN0nOLhI0AICQyhiB45g4W1eSkig5IUvF+OKgAUp7n b+/3B/tPnXr5EyGUy62FygQNNNq/lnTsfLys4p3oZ7SLYNGMVelgeWXJqPhOaqbikertgYxVT9JK lulN588PP2nmHWgMtPmxQgMNNJq5vMufLp0P68GiGc103AHplyW9TtKt2uF9qeexMnmeX53n+TtM 3UHuiIluSvq/kp6peXG53vEGDTTarvHTGIw0TdNkch1seRXqJFg0K8srS0uS3qIi7JMFNlaZpDUT wskMjfW1/lPLK0t/WzM0K54g7fV6l4S3RqPReKBtPfpAA422a/ww9PVhcXExHQ6HXTHR3XQssmGi eyW9XtLHVDRFWAxorIaSnpf0GcJG0830TxgFANhKnudJhw7XV7BoWiX6ehVbmv1VFZ2FQuJkWaHf 1/ju5AAAEZtqm6tRb8GiChNdVtFJ6OOliV6pik58DY7VI5K+qOJ98fONvrQFAIgRV993jWkrNMcm +suSfkOv9LhNAxqr75Um+kcq+u5uTz+xuwMAwOWL0ZZWobW3QrNsoktlJfpBFVvFXRnQWA1VPM79 QmmkF/sBG88fMEnTNOEaBIBYGQwGmU0jJVh00UTHwaKPl5VoaCb6vIrH3J8bV6KVRgoAAJelrd2X CBZN52RpoveVhqpKI23C6QEAIqSN1SjBIs0WLFLx+Hu7kbJFEgCAXwgWxRksqsL4dvgsy4gAAwAG 2nwVSrBI9YNFOxqpxw+IkQIAJiqCRYowWHTZitQDOUYKANA4BIumc1I7BIumGilbJAEAdKYaJVik +YNF3ipSuiIBAPhdEwkW7XqsZgoWOTdSqlAAgCCrUIJFshMscmqkmCgAQJAmSrBI9oJFzitSAAAI DoJF0zmpmsEiZ0ZKNQoAEGQ1SrBIdoNFFfSMzQ+IgQIAJkqwqM3Boi2kq6urqbHx4TBRAMBACRaV JtrqYNEWE+1Jcz7axUQBoMueubW6Ilh00URDDxY9p10GiyZN9PDhw8ncRgoA0GEWJO1XxaPKADgn 6X+NTVR+g0VXSDqqIlh0p8ILFj2uIlT0We0iWCSpt7q6esm5r22kVKMA0FWWV5aOSnq/pLdK2hNY NToZLPqhmgkW/ZPSREMMFn1B0h9ol8GisYkePnw4OXHiRF7bSAkWAUDHTfQ9ku6RdIOvNZFg0a7H ahws+pKK96PzklaZ6EMPPTQydT8cJgoAHTTRmyV9QNJxSXcRLLo4Lp0LFm0x0UxSZiydTACAVvKt h79xm6R7JX1E0hGCRRdNtPUdiyZNdBws2mKiI4mwEQDA5SrReyX9pqTrAvt4dCyazklZ6FikimBR aaKj8kZGlzVSqlEA6LCJHlXxOPcjpYku0LGoWx2Lpr0TnTTRHY2UYBEAdNxE31NWo0d8rYkEi3Y9 VlY7Fs1iopVG6uEuIuUyBYCATZRgUfW4ECyqMNFtRuphEJI0TRMuVQAIEYJFU02UYNEOj4gJGwEA iGDRZSpRgkU7YJq8mwAACMRECRZVjwvBosuY6EUj9f1iGAAgMBMlWFRtogSLZsD4vovIsowIMACE YqIEi6rHhWDRjCZ6iZF6HASMFAAah2DRVBMlWFTzEbHvsFGOkQJAIJUowaLqSpRgUU1Mw3deAAC+ TZRgUfW4ECyaw0SdVaR0RQKAgE2UYFG1iRIsmhPjagAwUQAIzEQJFlWPC8GiXZioVSPFRAEgVAgW TTVRgkXzPyJ2U5G2iQM37HvrYKDF4XC467uVyZNpjFLJyJQjPxxKaNjVWF/r/29mMGypRAkWVVei BIssYMVI21aNXnP9yi0bG6Pfy/P86vEh2brxGo0SSSONRtvGCg1LGssrS7+CmUI5FwgWVY8LwSJ7 N/09Y3MQ2vI4N8/zPXme3yXpelcTpsFQQxc0VrAQIFi0o4kSLLJDurq6mhobA9AmE5WkjY2N3NVk afgOGA3oiokSLKoeF4JFdk20J835aLcDi90Q88FEIU4IFk01UYJFFoJFVRqEjQCgbZUowaLqSpRg kR22adQ2UqoGKkWqUQjURAkWVY8LwSIHJjqpYeYdBBa65scKDYBLTJRgUbWJEiyyw1QNU3cAWOyo EKlCITATJVhUPS4EixwEi6o0jKUJAxhcSBrsIt8RCBZNNVGCRY6CRVUahI2gjaQMQWcqUYJF1ZUo wSI7zKRhqEap4tqm0ev1qEjbb6IEi6rHhWCR42BRlYaZZRAw0NknDKGf5jWgEyZKsKjaRAkW2aGW hmngTqU1j92oEMPWgFaaKMGi6nEhWOQpWFT1HxjPA52kadqK1Q6Dw0TBLwSLppoowSKPwaLLGikA QMCVKMGi6kqUYJEd5tYwVA1UcW3TGI1GI0GbTJRgUfW4ECxqIFg01Uh9v3xui4kS+glWgxRTu0yU YFG1iRIsssOuNYzvO5Usy6Jc5KgQu6cBjZsowaLqcSFY1GCwaEcj9TjQ0a14mA8mCn4hWDTVRAkW NRwsumxF6oFcPHYDgMtXogSLqitRgkV2sKphqBqo4tCAgEyUYFH1uBAsCiRY5K0ibUH3mp6v40Cj U/MKLm+iBIuqTZRgkR2caBhXgxzzYrdnz550c3OT6o0qFPyZBcGi6nEhWBRYsMipkbZssUswH0wU /ECwaKqJEiwKMFjkvCIFAJijEiVYVF2JEiyyg3MNK0ba1qqBKo5qFJyaBcGi6nEhWBRwsKhKw9gc 6BYtdLnrSUnop5PzCi41UYJF1SZKsMgO3jSMjUFu22K3sbGxLunPJK3sdi6WY5VUmLStAUNjO6ex qqBNlGBR9bgQLIogWFSlYRxOymhZX+s/xXIXNX+XIQgTgkVTTZRgUSTBoioNwkYA4LMSJVhUXYkS LLJDIxq1jZQACADMYRYEi6rHhWBRZMGiKg0z70BjoABQw0QJFlWbKMEiOzSqYeoOMiYKADXMgmBR 9bgQLIo0WFSlYSxNSgCASyBYNNVECRZFHCyq0iBsBACuKlGCRdWVKMEiOwSjYahGAcCyWRAsqh4X gkUtCBZVaZhZBhoDBYAaJkqwqNpECRbZITgN08DdUMpyA9BKEyVYVD0uBItaFCyq+g+M55OZpGma sOQAtAuCRVNNlGBRy4JFlzVSAIA5K1GCRdWVKMEiOwStYZq8KwKA6E2UYFH1uBAsammwaKqR+n7B DQCtMVGCRdUmSrDIDlFoGN93Q1mWEQEGiN9ECRZVjwvBopYHi3Y0Uo8nEyMFiBiCRVNNlGBRB4JF l61IPZBjpADRV6IEi6orUYJFdohOwzR8BwkA8ZgowaLqcSFY1KFgkbeKlK5IAK00UYJF1SZKsMgO 0WoYVycSEwVojYkSLKoeF4JFHQwWOTVSTBSgfRAsqjTQhbLyPCqCRdYMLmYNOhsBwE6VKMGi7RyW 9FFJ7y3HZW9gY3NSBIu8algxUqpRgNaZ6G0qHll+SASLJsdln6S3SXq7pBslLTa1Jk7R+K6kP5T0 eREs8qZhbJ5MDBSgFSZ6tKy2QgwWnStNtKlg0a+qeFf8ummFSINj9YiKd6JfEsEirxrGxonERAFa Y6LjYNH7Jd0ZaLDoM2ouWPQBSe+WtD+gKnQcLPpiaaLf36UxECyqqWEcTnwAiAiCRVNNlI5FBIt2 1CBsBAAEi3auROlYZIfWatQ2UqpRgNaZKB2LqseFjkUEi2bSMPOeTAwUoDUmeo8IFlWZ6K8o3I5F 42ARHYsC0DB1TyQmCtAaEx0Hi+5VuB2LPqPmgkW/oXA7Fo3b/tGxKAANY2niA0BEECyaaqIEiwgW 1dYgbATQzUqUYFF1JUqwyA6d0jBUowCdMlGCRdXjQrCIYNHcGmaWk4mBArTCRG9T0bHo/SJYNDku +yT99fIGI8Rg0bOS/qw0UoJFAWqYBu64UpY0AO8merOK3rn3io5Fk+OyJOktKoJFv6aw3omO+amk h0WwKFgN43nCJGmaJixrAP6YCBZ9SASLJk10HCz6mMILFk0y0O6CMwSLHGsQNgJofyVKsKi6Eg05 WGQLgkUeNEyTd14A4NQsCBZVj0vowSLrJkqwyK2G2XoyfbxEBwAvJkrHomoTDbljkS0IFnnUML7v uLIsIwIM4NYs6FhUPS4hdyyybaIEizxqmAYmDEYK4Ag6Fk010ZA7Flk3UYJFfjV8h43yWIx0eWXp X5cXW5KmaVVVbes4EjSsa/zX9bX+X3a0EiVYVF2JEixCw5mGifjOy+WF9xoVX34+mCTJJZ994p9z e0OFhmWN/9lBEyVYVD0uBIsIFjnXcFKRtqAr0h5JNyZJcr3r42hBqCFEjaUOmijBomoTJViEhnMN 42qyRGyi2rNnT7q5uRnz3Ska3TFRgkXV40KwiGCRNw0T0YTxSYL5YKKhQ7BoqokSLCJY5FWDzkYA 8VaiBIuqK1GCRWh41bBipG2tGqjiqEYDNVGCRdXjQrCIYFEjGsbmhGnRQpe7vrgIFnVyXtkyUYJF 1SZKsAiNRjSMjcnStsVuY2Mjd3VhUSFShe7CLAgWVY9LF4JFiQj9BKthApwwITDEfDDRkCBYNNVE CRYR+mlcg7ARQByVKMGi6kq0C8GipNfrbfsloZ9wNGobKVUDlSLVqFcTJVhUPS5dCRZdlCH0E66G mXfCsNA1P1ZodMJECRZVm2gXgkWXaBD6CVfD1J0sLHZUiFShXsyCYFH1uHSlY9FWDUI/AWuYECYM JoqGg4RjtBAsmmqiXQkWbdMYjUaEfgLWIGwEbSSNvBIlWFRdiXYhWDQNm8ZAsMiyhqEapYprm0av 14uyIiVYNHVcOhUsqtCwuacvwSIHGmaWk4mBzj7xCf00rxGxib5H0nERLNpqop0LFjnSIFjkSMM0 cMcV7WM3KsS4NCIyUYJF1ePS1WAR261FpmE8n8wkTdOogyBcwJioTQgWTTXRkINFeTk+qSwE2+iK FL8GYSOA5irRW1Q8yv24CBZNjssVko6qCBbdqfCCRRuSXpL0akm9wKcZwSIPGoaqgSqubRqj0WgU +hxaXlm6TcUjyw+JYNHkuOyT9Jby5uIuSfsVVrDou5K+J+kqSX9T0lLA1wfBIk8aZuvJ9PESvS0m SqghWI0YUkxvFh2LtprosqRflfRBScckvUphBYsekfSF8ubindrl40SCRe3RSH3c1U1OmCzLooxq bj0OH2OFRrMaDg3jBkl3SLojoLEaSfqZpK+VleifNxAseqOK0NW7qyrRBsdqKOkxSV+U9CUVj7pD nrsEizxrmAYejURnpDxm7Z6GY26VdFOSJGkgY0WwaLrGUNLz5c3F59bX+ieWV5Z+PuC5S7CoAQ3f YSObXywGiJWjkm4K6PPQsWg6J0sTvW99rf9M4POKYFFDGoaqgSoODf8VaZIkhwIZKzoWTdd4RMXj 3M/ZMFGCRe3VcFKRtqB7zUjSD5MkefGVw3AWakjQsK5xNuTJlSTJzZKudnl90LFo12M1Dhb90fpa /0TgayKhn4Y1jKsJGXMVur7WP7XvmuV/KmlZuhiQsvVYOlHRmGL8z0LDusaToc6tq67d/0uS/o2k JToWBdmxaKjice4XSxP9y8DXREI/AWgYzxdwNJx9Yf3fC2Lld4N91DEa3SFphWBRHMGiGEyU0E/z Gq3pewsQOmU7wDtVfJm/KcbBot9SESy64LkSHQeL7laYwaLfUxEsOhH4dOqNq6tJykeUIzT8alip SNluDeDyvOtd7zqb5/kb8jy3bqQEi3Y9VgSL0Jhbw9icMBgowHSGw+GhPM8PSdrryhgIFs01VgSL 0NiVhrExWTBRgJ05cMPVNw4Gg7GJWGl0TrBo12MVU7AoEaGfYDVMgBMGoHX0+/0rVbQFXPBoogSL RLAIDfcabKMG4Id9KnYzWfSoScei6ZxUPB2Lkl5v+0MMOhaFo1HbSKlGAebigKTbbdy81nik+1VJ /1n+g0WvkvTXJH1MYQaLvivpDyV9PoJg0UUZQj/haph5JwwGCjAb5dde7pa0ol1+5azGNfi8pG+r ua3QxsGiULdC+9IuHucm5Y/X4yD0E66GqTshMVGAehw7dmyPih1f5g4ZzXEN/kTSiYaCRR+Q9Gsq tkILpQqdDBZ9aX2t/+huJNI0TSY/u4fjIPQTsIZxcAEDwKUcUrmBtycTlaQfSXrao4l2Jli0uLiY DraIBEcAABGHSURBVIdDr8cxGo0I/QSsQdgIIHAjnZMfSXrKYyXamWBRnudJA8dg0xgIFlnWMFSj AF6M9HpP1Wimou3f42UV5tpEO9WxqMJUfRyHzX2cCRY50EhnOZl5nmOiAPMZzc9LulHS0m4W1BrX 4EjF+9FnXYeMJjoWfVjF49yrVPEe2MdaMkVjHCz6ou3euVmW+TwOWxAscqRhGrhzpFE+dIlbSyN1 WYVOMlDx9Y41xybamY5F04pRD8dh20QJFjnSMJ5PZpKmaSKA7nCkjpFauAYHkr7j0ki7FCyqHODB ILNppHRFil+DsBGAW16v4h2pLzZdGikdiySLlY8PCBZ50DBN3kECtJnllaXXSPqUiqYEPiqTC5Ke lfSEpL6D4+l0sGhSLpJqlGCRJw2z9WT66DIC0BF+QUVrwFrf197FNXhW0qOSfra+1h86MNHObIXm A7Zba4+G8X3nmGUZ8V/oCneqSLL6qkheUvFYd2DZRLseLPJxHLZNlGCRRw3TwMTHSKFLRrriaUHN VbwX/Y6K96S2TLTTwaJYTZRgkV8N319FsfnFYoBgWV5ZuknFo90rPV5ba5K+J2mwvLJkLBzDZLDo boUZLPo9FcGiE8w69cbV1STlI8oRGu40jOc7SICucFTFY13j6fp4UdKp0kyT3bwjXV5ZWpF0naR7 JL1fHdgKrQXVKKGfBjWM6wmDgUIHq9GbJR2XtFfldlsero9nJD0mabS+1h9VfKbe+PfLK0uppD2l Oa5Iuqb8WVERjvoX5f++tjTRNm6F1piJEixqn4ZxNVkwUegwV0m6S9Kix+vjaUk/3mqiN9xy3dUv v/zyFZJuWV5ZeoOkZRXvOlckXVtWnofKn+tUNI94laSFJq9zD1uhtaEKHRsDoZ+GNUxEEwYgFlYk 3TFpRo6vj1zS8wsLC89c95prX51lWS/LMjMajfZtbm7+YllZvkbSzZJeJ+mwpBs0sUF1SNf5Dib6 nAgWbTMGQj/Na9DZCMA+B0uz8nV95ZIOjEajt62vr38gz/PXSrolz/OrVTzCNSqayZuJf47ti92P S7pP0mdjeSfqGDoWBaRh5UKnGgUoWF5ZOqzi+5aLHq+PJEmS1TzPD6vYZeZVeZ5fUX6G1KJIU9Xo +J3oHxAsutQYCP2EoWFsThgMFODiJt6Jr+sjKUSulXSt59CPD43JjkWPx2aiBIu6oWFsTBZMFOAi N0i6tcHqrS0adCza8udF6CdYDRPqxQUQa0WaJMnrMNFdmygdiyoWbUI/YWqwyTaAJZZXlg6pSMde zWjsipOiY9ElPt3rbWvCQ8eigDRqV6RUowBTeX2SJDeqSMVSjc6n4WsrtKjGSlJC6CdcDTPvhMFA AbZcYb3ekSzLDrm8PhoM/fjQiGUrtIvfv/U5VoR+wtUwdSc9JgpQTZ7nPyfpEFVobY3YgkVJmqbJ 5Ph4GCtCPwFrmBAuLoCWGOnhPM8PYqK1TTSqYNHi4mI6HA69jtVoNCL0E7AGYSMAC1x17f43Snq1 tvTXhctyUpEFi/I8b6IrlE1jIFhkWcNQjQJYWOWy7BfzPF+R5dZ7BIuCN1UfY2VzH2eCRQ40zCwn EwMF2JnRaHSHimb1ThZUgkXB3TjFeD4IFjnSqNxj0PXJZNmFNlF+f/QXVOzvaWUxdW1wDWoMVeyb Gk3HomnFaGTng2CRQw3j+RFPkqZpNLtOfPgf/YPrq35///33J0tLS6kufYyX9/v9/Pjx41ZOJhrz a5z56YtPep4q+1VsT7ZssyJxaXANaUQXLKpiMBhkNo2Urkjxa7CNWnWFcZOk+yV9fdq/c+HChcrJ f//991v7HGjMp3Hlq/e98+Xnz/6pj7nyrYe/cZukO1XsupJw9ezIydJE74t8K7Qsos/KVmgeNEyT d6kBsyDpJknXdbBqiF5jOBzu8TVRjh07NiqNdHG3RkqwKBpiqUYJFnnSMFtPpo/AQSx3clUVe8sD IGjUZ0XSqnb5tReCRd2DYFF7NIzvu9Msy/LYJz0VYjc0ZuSApNvKpxicj0s1otsKrSVrCcEizxqm gYsrZ+Kj0RITlYqNvK/nfFSaaPTBolhNlGCRXw3fX0Wx+cVigEZZXln6K5KOMBKVnBRbofmGjkUN aZiOVA1UcWi4qkaPcD62abQpWBTL+SD006CGcT1hIjXQnq/jQCPqeXVI0q0dPh+5pL6kl/I8f1HS GRWPc/9C0lepRL2dD0I/DWsYV5Ml5ip0z5496ebmJtUbVegsRnpjy8cqV/Go64Kk85LOJ0lyTtI5 SeeSJHkxy7JnJD1d/pyS9Nj6Wv9Z7JNgUVc0TEQTxuv8x3ww0Z1YXlk6KumfSbqiJWOVl4vJsPwZ TfzzWUnPSHoqTdOTSZI8liTJYwsLCyfO/PTFJ7DLZk2U0E/zGnQ2ApiPI3Wq0QjYVPFo9sflz+OS nigrzFOShsvLy9lzT52h0gwDOhYFpGHFSNu63RpVHNXoDtw6q5EGNFYbkl6Q9OzEz9OSnpL0nMrH tWUFun78+PELn/7UZwkLhTd3Cf0EpmFsTpgWbbeWu17sCP1EP69+TtINAY5VpuJd5gtlhfmCpLXy 57nydy9O/O7M+lr/R1hfNHOX0E+AGsbGZGmZiWpjYyN3dWFRIcY/r5ZXlq6XdJ+kqxo6jpGkzSRJ zpemeV7SupSPq8m1stJ8UtJPVbzfPE2KNuoqNBGhn2A1TIATJgSGmA8mugNvkHSNyq9JOTyOcRBi MgA0UpGcPSPpVJIkpyQ9mSTZT3o9/XjtdP//YWmtM9GLizahnzA1CBsB1OcuFc3qXfMzFYGfx8qf U5KeWlhYeNIYcyZN08FXvvKVq95851u+zylpt0/3etvv2Qj9hKNR20g7UI1SxVGNXo47pxlpzeMY qngsOxn+eUZF+Oep0kgvhn8kXXjggQeuwDi7d51LSgj9hKth5p0wGGjzY4WGf5ZXll4r6cuS9s14 HJmKZgY/Uxnu0SthnxdUBIAmwz8vqAgAPcVVFO7lXf54vT4I/YSrYeqcSEyUCrHDVeiY10g6KGnP xHHkZXXZl3Q+z/My/HOxmnxRReu8Z1UEgJ6RdPqBBx4YUF3GeZmnaZpMzlcP1wehn4A1TM2TiYli cDFoONlFfnll6UZJ95SL2rqkUZIkI0mD0jCfTJLkiTzPT6rY/eTHx48f/wnfxWwXi4uL6XA49Hp9 jEYjQj8BaxA2gjbianvAvSrejX5d0umyXd7JNE1P9Xq959M03Xz+6ReeZvjbTZ7nSQOyNo2BYJFl DUM1ShXXNo1er+dkoVtf6z9W9tj9k8XFxY0kSc7v32/WT/7oDBVnd03Vx/Vhcx9ngkUONMwsJxMD nX3iE/ppXsMl62v9HzDjIcuyGK8PgkWONEwDFUnalouJCjFsDQCXxWhk1wfBIocaxvPJTNI0bcVq h8FhotBNBoNBZtNI6YoUvwZhIwCAemQRfVaCRR40DFUDVVzbNEaj0UgA7oilGiVY5EnDbD2ZPkIm ofPAAw/sOXbs2H/Xpbt7pGkqTb7izbLMZpoODXsadAWCqG7ICRbFrWF8VwvlYhc0ZbeZuyQtqNy+ yBiTSEoWFqTBQJKGeZZp/K5kt8eEhkWN9bX+QyzTEIOBOjRRgkUeNYxPEy01ovjOw/pa/ztc8gAQ o4kSLPKr4TtsZPvxHgAAFBAsakjDeK5GAQCoRkWwqE0axvWEwUABABMlWNRmDeNqsmCiAICBEizq goaJaMIAAGCiW4yB0E/zGnQ2AgCID0I/AWlYMVKqUQAAb2sioZ/ANIzNCYOBAgAmSrCoaxrGxmTB RAEAA3W6JiYi9BOshglwwgAAYKIVizahnzA1CBsBAATu071eb9svCf2Eo1HbSKlGAQC8r4kJoZ9w Ncy8EwYDBYCuemf543ULSkI/4WqYOicSEwUAUJKmaTK5DnroV07oJ2ANU/NkYqIA0GkWFxfT4XDo 00Q1Go0I/QSsQdgIAKAGeZ4nDcjaNAaCRZY1DNUoAMDcpuq8Gs0LEVtCBIscaJhZTiYGCgAwUR5m mZO/S1ekODVMA1VoymUIALEXo46rUBcmSrDIkYbxfDKTNE0TrkEAiJXBYJDZNFK6IsWvQdgIAKAe WUSflWCRBw3j8a5omwYAQITEUo0SLPKkYbaeTNfdOQAAgGBRmzSM7yo0yzIiwACAgbo1UYJFHjWM TxMtNTBSAMBERbCoLRq+w0Y2v1gMAACvQLCoIQ3juRoFAKAaFcGiNmkY1xMGAwUATJRgUZs1jKvJ gokCAAZKsKgLGiaiCQMAgIluMQZCP81r0NkIACA+CP0EpGHFSKlGAQC8rYmEfgLTMDYnDAYKAJgo waKuaRgbkwUTBQAM1OmamIjQT7AaJsAJAwCAiVYs2oR+wtQgbAQAELhP93q9bb8k9BOORm0jpRoF APC+JiaEfsLVMPNOGAwUALrqneWP1y0oCf2Eq2HqnEhMFABASZqmyeQ66KFfOaGfgDVMzZOJiQJA p1lcXEyHw6FPE9VoNCL0E7AGYSMAgBrkeZ40IGvTGAgWWdYwVKMAAHObqvNqNC9EbAkRLHKgYWY5 mRgoAMBEeZhlTv4uXZHi1DANVKEplyEAxF6MOq5CXZgowSJHGsbzyUzSNE24BgEgVgaDQWbTSOmK FL8GYSMAgHpkEX1WgkUeNIzHu6JtGgAAERJLNUqwyJOG2XoyXXfnAAAAgkVt0jC+q9Asy4gAAwAG 6tZECRZ51DA+TbTUwEgBABMVwaK2aPgOG9n8YjEAALwCwaKGNIznahQAgGpUBIvapGFcTxgMFAAw UYJFbdYwriYLJgoAGCjBoi5omIgmDAAAJrrFGAj9NK9BZyMAgPgg9BOQhhUjpRoFAPC2JhL6CUzD 2JwwGCgAYKIEi7qmYWxMFkwUADBQp2tiIkI/wWqYACcMAAAmWrFoE/oJU4OwEQBA4D7d6/W2/ZLQ TzgatY2UahQAwPuamBD6CVfDzDthMFAA6Kp3lj9et6Ak9BOuhqlzIjFRAAAlaZomk+ugh37lhH4C 1jA1TyYmCgCdZnFxMR0Ohz5NVKPRiNBPwBqEjQAAapDnedKArE1jIFhkWcNQjQIAzG2qzqvRvBCx JUSwyIGGmeVkYqAAABPlYZY5+bt0RYpTwzRQhaZchgAQezHquAp1YaIEixxpGM8nM0nTNOEaBIBY GQwGmU0jpStS/BqEjQAA6pFF9FkJFnnQMB7virZpAABESCzVKMEiTxpm68l03Z0DAAAIFrVJw/iu QrMsIwIMABioWxMlWORRw/g00VIDIwUATFQEi9qi4TtsZPOLxQAA8AoEixrSMJ6rUQAAqlERLGqT hnE9YTBQAMBECRa1WcO4miyYKABgoASLuqBhIpowAACY6BZjIPTTvAadjQAA4oPQT0AaVoy0xp3X 6yT9w+WVpc/Vldjao7fcfcFmChgNNNBAYxZ+V9IRSXsbqkYJ/QSmsWsjrfkS/WpJV0p6Q12N8d92 2XkJDTTQQGOWP1MWIT0La2JdCP0EqGF2MyHnuONKy58Fhxo+jgMNNNBAw6dGIkI/wWoYJj4aaKCB RvAahH4C1iBsBAAQNkmvt/0pMqGfcDRqGyl3kGiggQYafjUkJYR+wtUw804YH9utoYEGGmigUWgQ +glXw9SdLNw5ooEGGmh41yD0E7CGYeKjgQYaaIStMRqNCP0ErEHYCAAgfGwaA8EiyxqGO0g00EAD jaA1bHZ2IljkQMPMcjIJA6CBBhpoRK9BsMiRhuHOEQ000ECj9RoEixxqGCYlGmiggUb7TZRgkTsN wkYAAO2FYJEHDcPdHRpooIFGKzUIFnnSMFtPJi/q0UADDTQIFqExu4bhrg4NNNBAo1UaBIs8axgm JRpooIEGwSI05tcgbAQA0A4IFjWkYbi7QwMNNNAgWITG/BpOKlLCAGiggQYa3jQI/TSsYVxNFu4c 0UADDTQIFnVBwzAp0UADDTQIFqERgJECAIA3CP0EpGHFSLmDRAMNNNDwpkHoJzCN/w9ObtjcTcRd 4QAAAABJRU5ErkJggg== "
       id="image507"
       x="94.87706"
       y="136.54659" />
  </g>
</svg>
